{
  "project_info": {
    "project_number": "60597101436",
    "firebase_url": "https://embress-1a31c.firebaseio.com",
    "project_id": "embress-1a31c",
    "storage_bucket": "embress-1a31c.appspot.com"
  },
  "client": [
    {
      "client_info": {
        "mobilesdk_app_id": "1:60597101436:android:50727f0e5cae895a0dbaf9",
        "android_client_info": {
          "package_name": "com.masterstrokepune.embress"
        }
      },
      "oauth_client": [
        {
          "client_id": "60597101436-u0ol207114hj7mbcvo2afm0k21g5iu2e.apps.googleusercontent.com",
          "client_type": 3
        }
      ],
      "api_key": [
        {
          "current_key": "AIzaSyDwEyeAJ_IacgjitnsijqzSI7h1fH2Ivsk"
        }
      ],
      "services": {
        "appinvite_service": {
          "other_platform_oauth_client": [
            {
              "client_id": "60597101436-u0ol207114hj7mbcvo2afm0k21g5iu2e.apps.googleusercontent.com",
              "client_type": 3
            }
          ]
        }
      }
    }
  ],
  "configuration_version": "1"
}